…
```{r spark4,eval=F}
install.packages(c("nycflights13", "Lahman"))
```

```{r spark5,eval=F}
iris_tbl <- copy_to(sc, iris)
flights_tbl <- copy_to(sc, nycflights13::flights, "flights")
batting_tbl <- copy_to(sc, Lahman::Batting, "batting")
src_tbls(sc)
flights_tbl %>% filter(dep_delay == 2)
```

```
Source:   query [6,233 x 19]
Database: spark connection master=local[8] app=sparklyr local=TRUE

    year month   day dep_time sched_dep_time dep_delay arr_time sched_arr_time arr_delay
   <int> <int> <int>    <int>          <int>     <dbl>    <int>          <int>     <dbl>
1   2013     1     1      517            515         2      830            819        11
2   2013     1     1      542            540         2      923            850        33
3   2013     1     1      702            700         2     1058           1014        44
4   2013     1     1      715            713         2      911            850        21
5   2013     1     1      752            750         2     1025           1029        -4
6   2013     1     1      917            915         2     1206           1211        -5
7   2013     1     1      932            930         2     1219           1225        -6
8   2013     1     1     1028           1026         2     1350           1339        11
9   2013     1     1     1042           1040         2     1325           1326        -1
10  2013     1     1     1231           1229         2     1523           1529        -6
# ... with 6,223 more rows, and 10 more variables: carrier <chr>, flight <int>,
#   tailnum <chr>, origin <chr>, dest <chr>, air_time <dbl>, distance <dbl>, hour <dbl>,
#   minute <dbl>, time_hour <dbl>
```
…
